{
    "response":{
        "trending":{
            "colorScheme":"#D47FA6",
            "data":[
                {
                    "date":"2023-02-18T15:46:44.529116",
                    "title":"Yoga and Meditation for Beginners",
                    "members":[
                        {
                            "image":"https://randomuser.me/api/portraits/women/49.jpg",
                            "name":"Jane Doe"
                        },
                        {
                            "image":"https://randomuser.me/api/portraits/men/48.jpg",
                            "name":"John Doe"
                        },
                        {
                            "image":"https://randomuser.me/api/portraits/women/49.jpg",
                            "name":"Jane Doe"
                        },
                        {
                            "image":"https://randomuser.me/api/portraits/men/48.jpg",
                            "name":"John Doe"
                        },
                        {
                            "image":"https://randomuser.me/api/portraits/women/49.jpg",
                            "name":"Jane Doe"
                        },
                        {
                            "image":"https://randomuser.me/api/portraits/men/48.jpg",
                            "name":"John Doe"
                        }
                     
                    ]
                },
                {
                    "date":"2023-02-23T15:46:44.529116",
                    "title":"Practice French, English And Chinese",
                    "members":[
                        {
                            "image":"https://randomuser.me/api/portraits/women/49.jpg",
                            "name":"Jane Doe"
                        },
                        {
                            "image":"https://randomuser.me/api/portraits/men/48.jpg",
                            "name":"John Doe"
                        },
                        {
                            "image":"https://randomuser.me/api/portraits/women/49.jpg",
                            "name":"Jane Doe"
                        },
                        {
                            "image":"https://randomuser.me/api/portraits/men/48.jpg",
                            "name":"John Doe"
                        },
                        {
                            "image":"https://randomuser.me/api/portraits/women/49.jpg",
                            "name":"Jane Doe"
                        },
                        {
                            "image":"https://randomuser.me/api/portraits/men/48.jpg",
                            "name":"John Doe"
                        }           
                    ]
                },
                {
                    "date":"2023-02-26T15:46:44.529116",
                    "title":"Adobe XD Live Event in Europe",
                    "members":[
                        {
                            "image":"https://randomuser.me/api/portraits/women/49.jpg",
                            "name":"Jane Doe"
                        },
                        {
                            "image":"https://randomuser.me/api/portraits/men/48.jpg",
                            "name":"John Doe"
                        },
                        {
                            "image":"https://randomuser.me/api/portraits/women/49.jpg",
                            "name":"Jane Doe"
                        },
                        {
                            "image":"https://randomuser.me/api/portraits/men/48.jpg",
                            "name":"John Doe"
                        },
                        {
                            "image":"https://randomuser.me/api/portraits/women/49.jpg",
                            "name":"Jane Doe"
                        },
                        {
                            "image":"https://randomuser.me/api/portraits/men/48.jpg",
                            "name":"John Doe"
                        }           
                    ]
                }
            ]
        },
        "health":{
            "colorScheme":"#B4C55B",
            "data": [
                {
                    "date":"2023-02-18T15:46:44.529116",
                    "title":"Vegetarians Recipes Meetup",
                    "members":[
                        {
                            "image":"https://randomuser.me/api/portraits/women/49.jpg",
                            "name":"Jane Doe"
                        },
                        {
                            "image":"https://randomuser.me/api/portraits/men/48.jpg",
                            "name":"John Doe"
                        },
                        {
                            "image":"https://randomuser.me/api/portraits/women/49.jpg",
                            "name":"Jane Doe"
                        },
                        {
                            "image":"https://randomuser.me/api/portraits/men/48.jpg",
                            "name":"John Doe"
                        },
                        {
                            "image":"https://randomuser.me/api/portraits/women/49.jpg",
                            "name":"Jane Doe"
                        },
                        {
                            "image":"https://randomuser.me/api/portraits/men/48.jpg",
                            "name":"John Doe"
                        }
                     
                    ]
                },
                {
                    "date":"2023-02-23T15:46:44.529116",
                    "title":"Learn How to do your own Juice",
                    "members":[
                        {
                            "image":"https://randomuser.me/api/portraits/women/49.jpg",
                            "name":"Jane Doe"
                        },
                        {
                            "image":"https://randomuser.me/api/portraits/men/48.jpg",
                            "name":"John Doe"
                        },
                        {
                            "image":"https://randomuser.me/api/portraits/women/49.jpg",
                            "name":"Jane Doe"
                        },
                        {
                            "image":"https://randomuser.me/api/portraits/men/48.jpg",
                            "name":"John Doe"
                        },
                        {
                            "image":"https://randomuser.me/api/portraits/women/49.jpg",
                            "name":"Jane Doe"
                        },
                        {
                            "image":"https://randomuser.me/api/portraits/men/48.jpg",
                            "name":"John Doe"
                        }           
                    ]
                },
                {
                    "date":"2023-02-26T15:46:44.529116",
                    "title":"Sports Love Training Session",
                    "members":[
                        {
                            "image":"https://randomuser.me/api/portraits/women/49.jpg",
                            "name":"Jane Doe"
                        },
                        {
                            "image":"https://randomuser.me/api/portraits/men/48.jpg",
                            "name":"John Doe"
                        },
                        {
                            "image":"https://randomuser.me/api/portraits/women/49.jpg",
                            "name":"Jane Doe"
                        },
                        {
                            "image":"https://randomuser.me/api/portraits/men/48.jpg",
                            "name":"John Doe"
                        },
                        {
                            "image":"https://randomuser.me/api/portraits/women/49.jpg",
                            "name":"Jane Doe"
                        },
                        {
                            "image":"https://randomuser.me/api/portraits/men/48.jpg",
                            "name":"John Doe"
                        }           
                    ]
                }
            ]
        },
        "music":{
            "colorScheme":"#4EBDEF",
            "data":  [
                {
                    "date":"2023-02-18T15:46:44.529116",
                    "title":"NYC Electronic Music Meetup",
                    "members":[
                        {
                            "image":"https://randomuser.me/api/portraits/women/49.jpg",
                            "name":"Jane Doe"
                        },
                        {
                            "image":"https://randomuser.me/api/portraits/men/48.jpg",
                            "name":"John Doe"
                        },
                        {
                            "image":"https://randomuser.me/api/portraits/women/49.jpg",
                            "name":"Jane Doe"
                        },
                        {
                            "image":"https://randomuser.me/api/portraits/men/48.jpg",
                            "name":"John Doe"
                        },
                        {
                            "image":"https://randomuser.me/api/portraits/women/49.jpg",
                            "name":"Jane Doe"
                        },
                        {
                            "image":"https://randomuser.me/api/portraits/men/48.jpg",
                            "name":"John Doe"
                        }
                     
                    ]
                },
                {
                    "date":"2023-02-23T15:46:44.529116",
                    "title":"Read Inspiring Quotes Out Loud",
                    "members":[
                        {
                            "image":"https://randomuser.me/api/portraits/women/49.jpg",
                            "name":"Jane Doe"
                        },
                        {
                            "image":"https://randomuser.me/api/portraits/men/48.jpg",
                            "name":"John Doe"
                        },
                        {
                            "image":"https://randomuser.me/api/portraits/women/49.jpg",
                            "name":"Jane Doe"
                        },
                        {
                            "image":"https://randomuser.me/api/portraits/men/48.jpg",
                            "name":"John Doe"
                        },
                        {
                            "image":"https://randomuser.me/api/portraits/women/49.jpg",
                            "name":"Jane Doe"
                        },
                        {
                            "image":"https://randomuser.me/api/portraits/men/48.jpg",
                            "name":"John Doe"
                        }           
                    ]
                },
                {
                    "date":"2023-02-26T15:46:44.529116",
                    "title":"Crazy Effects Music Has on Your Brain",
                    "members":[
                        {
                            "image":"https://randomuser.me/api/portraits/women/49.jpg",
                            "name":"Jane Doe"
                        },
                        {
                            "image":"https://randomuser.me/api/portraits/men/48.jpg",
                            "name":"John Doe"
                        },
                        {
                            "image":"https://randomuser.me/api/portraits/women/49.jpg",
                            "name":"Jane Doe"
                        },
                        {
                            "image":"https://randomuser.me/api/portraits/men/48.jpg",
                            "name":"John Doe"
                        },
                        {
                            "image":"https://randomuser.me/api/portraits/women/49.jpg",
                            "name":"Jane Doe"
                        },
                        {
                            "image":"https://randomuser.me/api/portraits/men/48.jpg",
                            "name":"John Doe"
                        }           
                    ]
                }
            ]
        },
        "sports":{
            "colorScheme":"#979797",
            "data":[]
        },
        "learning":{
            "colorScheme":"#979797",
            "data":[]
        }

    }
}