{
    "response":{
        "data":[
            {
                "name":"Jane Doe",
                "image":"https://randomuser.me/api/portraits/women/49.jpg",
                "date":"2023-02-18T15:46:44.529116",
                "message":"Checkout this message"
                
            }, {
                "name":"Jane Doe",
                "image":"https://randomuser.me/api/portraits/women/49.jpg",
                "date":"2023-02-19T15:46:44.529116",
                "message":"Checkout this message"
                
            }, {
                "name":"John Doe",
                "image":"https://randomuser.me/api/portraits/men/48.jpg",
                "date":"2023-02-20T15:46:44.529116",
                "message":"Checkout this message"
                
            }, {
                "name":"Jane Doe",
                "image":"https://randomuser.me/api/portraits/women/49.jpg",
                "date":"2023-02-22T15:46:44.529116",
                "message":"Checkout this message"
                
            }, {
                "name":"John Doe",
                "image":"https://randomuser.me/api/portraits/men/48.jpg",
                "date":"2023-02-23T15:46:44.529116",
                "message":"Checkout this message"
                
            }, {
                "name":"Jane Doe",
                "image":"https://randomuser.me/api/portraits/women/49.jpg",
                "date":"2023-02-28T15:46:44.529116",
                "message":"Checkout this message"
                
            }, {
                "name":"John Doe",
                "image":"https://randomuser.me/api/portraits/men/48.jpg",
                "date":"2023-01-01T15:46:44.529116",
                "message":"Checkout this message"
                
            }, {
                "name":"Jane Doe",
                "image":"https://randomuser.me/api/portraits/women/49.jpg",
                "date":"2023-03-05T15:46:44.529116",
                "message":"Checkout this message"
                
            }, {
                "name":"John Doe",
                "image":"https://randomuser.me/api/portraits/men/48.jpg",
                "date":"2023-03-06T15:46:44.529116",
                "message":"Checkout this message"
                
            }, {
                "name":"Jane Doe",
                "image":"https://randomuser.me/api/portraits/women/49.jpg",
                "date":"2023-03-15T15:46:44.529116",
                "message":"Checkout this message"
                
            }, {
                "name":"John Doe",
                "image":"https://randomuser.me/api/portraits/men/48.jpg",
                "date":"2023-03-25T15:46:44.529116",
                "message":"Checkout this message"
                
            }
        ]
      

    }
}